Library\Bee\artifacts\mvdfrm\Unity.Burst.ref.dll_3835BB91EC2C0D62.mvfrm
Library\Bee\artifacts\mvdfrm\UnityEditor.TestRunner.ref.dll_A805A84D9B0C22D9.mvfrm
Library\Bee\artifacts\mvdfrm\UnityEditor.UI.ref.dll_0174E068A5FA251B.mvfrm
Library\Bee\artifacts\mvdfrm\UnityEngine.TestRunner.ref.dll_7423F2FBC6CF80C4.mvfrm
Library\Bee\artifacts\mvdfrm\UnityEngine.UI.ref.dll_BDDAB6C3AC1C4D86.mvfrm
Library\Bee\artifacts\mvdfrm\UnityEditor.Graphs.dll_89B64D30E193F9A0.mvfrm
Library\Bee\artifacts\mvdfrm\UnityEditor.CoreModule.dll_8D09A06F8E285D6E.mvfrm
Library\Bee\artifacts\mvdfrm\UnityEditor.DeviceSimulatorModule.dll_5BB5E1C2179E2DB3.mvfrm
Library\Bee\artifacts\mvdfrm\UnityEditor.DiagnosticsModule.dll_B879F362248B3B41.mvfrm
Library\Bee\artifacts\mvdfrm\UnityEditor.dll_5CCBF90156C690C7.mvfrm
Library\Bee\artifacts\mvdfrm\UnityEditor.EditorToolbarModule.dll_4BB3546383F72323.mvfrm
Library\Bee\artifacts\mvdfrm\UnityEditor.GraphToolsFoundationModule.dll_7AB1086FC683D64F.mvfrm
Library\Bee\artifacts\mvdfrm\UnityEditor.GraphViewModule.dll_32CC3CDB08C800F8.mvfrm
Library\Bee\artifacts\mvdfrm\UnityEditor.PresetsUIModule.dll_EE3275BD0B2058FD.mvfrm
Library\Bee\artifacts\mvdfrm\UnityEditor.PropertiesModule.dll_7F31EF72F585CCA2.mvfrm
Library\Bee\artifacts\mvdfrm\UnityEditor.QuickSearchModule.dll_4389746F7D62379A.mvfrm
Library\Bee\artifacts\mvdfrm\UnityEditor.SceneTemplateModule.dll_6F52C52182E3CD5B.mvfrm
Library\Bee\artifacts\mvdfrm\UnityEditor.SceneViewModule.dll_717C1FE2FDEACE06.mvfrm
Library\Bee\artifacts\mvdfrm\UnityEditor.TerrainModule.dll_61AA4737D5632D8A.mvfrm
Library\Bee\artifacts\mvdfrm\UnityEditor.TextCoreFontEngineModule.dll_60981E437FF77B2C.mvfrm
Library\Bee\artifacts\mvdfrm\UnityEditor.TextCoreTextEngineModule.dll_A88054B50F7B344A.mvfrm
Library\Bee\artifacts\mvdfrm\UnityEditor.UIBuilderModule.dll_8754E9F77B807A2C.mvfrm
Library\Bee\artifacts\mvdfrm\UnityEditor.UIElementsModule.dll_AA0EEA8E757E21EA.mvfrm
Library\Bee\artifacts\mvdfrm\UnityEditor.UIElementsSamplesModule.dll_63653747D4324C23.mvfrm
Library\Bee\artifacts\mvdfrm\UnityEditor.UnityConnectModule.dll_8DB3B774B1DDC324.mvfrm
Library\Bee\artifacts\mvdfrm\UnityEngine.AccessibilityModule.dll_A1F830B88359F4F8.mvfrm
Library\Bee\artifacts\mvdfrm\UnityEngine.AIModule.dll_AF0E4D04640BCA02.mvfrm
Library\Bee\artifacts\mvdfrm\UnityEngine.AndroidJNIModule.dll_2857D361BE9D90C0.mvfrm
Library\Bee\artifacts\mvdfrm\UnityEngine.AnimationModule.dll_0151B903E324D59E.mvfrm
Library\Bee\artifacts\mvdfrm\UnityEngine.ARModule.dll_68811207C12928CB.mvfrm
Library\Bee\artifacts\mvdfrm\UnityEngine.AssetBundleModule.dll_8772A760DFC8EC8C.mvfrm
Library\Bee\artifacts\mvdfrm\UnityEngine.AudioModule.dll_3B719126EF7A9F10.mvfrm
Library\Bee\artifacts\mvdfrm\UnityEngine.ClothModule.dll_A259EE21C9977DF4.mvfrm
Library\Bee\artifacts\mvdfrm\UnityEngine.ClusterInputModule.dll_0D502C8A636595EA.mvfrm
Library\Bee\artifacts\mvdfrm\UnityEngine.ClusterRendererModule.dll_6162A43387593B37.mvfrm
Library\Bee\artifacts\mvdfrm\UnityEngine.CommandStateObserverModule.dll_2B74FBD8089F4726.mvfrm
Library\Bee\artifacts\mvdfrm\UnityEngine.ContentLoadModule.dll_208900A1AE4B9479.mvfrm
Library\Bee\artifacts\mvdfrm\UnityEngine.CoreModule.dll_B02A73C2362DC899.mvfrm
Library\Bee\artifacts\mvdfrm\UnityEngine.CrashReportingModule.dll_6BCE124C19DD35D1.mvfrm
Library\Bee\artifacts\mvdfrm\UnityEngine.DirectorModule.dll_282C9A5FDB86F4F6.mvfrm
Library\Bee\artifacts\mvdfrm\UnityEngine.dll_8F703FD9B53A1DAC.mvfrm
Library\Bee\artifacts\mvdfrm\UnityEngine.DSPGraphModule.dll_2D7DFBC94DE7C617.mvfrm
Library\Bee\artifacts\mvdfrm\UnityEngine.GameCenterModule.dll_52A51D7C84DE81B1.mvfrm
Library\Bee\artifacts\mvdfrm\UnityEngine.GIModule.dll_474A9611FFBAB21C.mvfrm
Library\Bee\artifacts\mvdfrm\UnityEngine.GraphToolsFoundationModule.dll_FE2415873B592C7A.mvfrm
Library\Bee\artifacts\mvdfrm\UnityEngine.GridModule.dll_8D9B8FB04E825E90.mvfrm
Library\Bee\artifacts\mvdfrm\UnityEngine.HotReloadModule.dll_829A7709BE57F120.mvfrm
Library\Bee\artifacts\mvdfrm\UnityEngine.ImageConversionModule.dll_CD54A1E4097DF32B.mvfrm
Library\Bee\artifacts\mvdfrm\UnityEngine.IMGUIModule.dll_73D1308DB5AC32F1.mvfrm
Library\Bee\artifacts\mvdfrm\UnityEngine.InputLegacyModule.dll_18B7C27F77BAA27D.mvfrm
Library\Bee\artifacts\mvdfrm\UnityEngine.InputModule.dll_A1E758D765B2C3B4.mvfrm
Library\Bee\artifacts\mvdfrm\UnityEngine.JSONSerializeModule.dll_020FB9F482955582.mvfrm
Library\Bee\artifacts\mvdfrm\UnityEngine.LocalizationModule.dll_4B9CF6DCFAE188E3.mvfrm
Library\Bee\artifacts\mvdfrm\UnityEngine.MarshallingModule.dll_2FDB45F5C3F119DE.mvfrm
Library\Bee\artifacts\mvdfrm\UnityEngine.NVIDIAModule.dll_691826C5669FFA25.mvfrm
Library\Bee\artifacts\mvdfrm\UnityEngine.ParticleSystemModule.dll_BEE05B9887EEC15F.mvfrm
Library\Bee\artifacts\mvdfrm\UnityEngine.PerformanceReportingModule.dll_4CC17968DB123658.mvfrm
Library\Bee\artifacts\mvdfrm\UnityEngine.Physics2DModule.dll_4DF7A8F48421CD33.mvfrm
Library\Bee\artifacts\mvdfrm\UnityEngine.PhysicsModule.dll_39DE847364B3CBE1.mvfrm
Library\Bee\artifacts\mvdfrm\UnityEngine.ProfilerModule.dll_5A72D39674E07C03.mvfrm
Library\Bee\artifacts\mvdfrm\UnityEngine.PropertiesModule.dll_7FE05CBAF7C9E5ED.mvfrm
Library\Bee\artifacts\mvdfrm\UnityEngine.RuntimeInitializeOnLoadManagerInitializerModule.dll_2850B50B4E7223FC.mvfrm
Library\Bee\artifacts\mvdfrm\UnityEngine.ScreenCaptureModule.dll_1BF76779970181E4.mvfrm
Library\Bee\artifacts\mvdfrm\UnityEngine.SharedInternalsModule.dll_5165E0B980ABEE7B.mvfrm
Library\Bee\artifacts\mvdfrm\UnityEngine.SpriteMaskModule.dll_3BD1900CA64E172B.mvfrm
Library\Bee\artifacts\mvdfrm\UnityEngine.SpriteShapeModule.dll_A0D3D4BB956B2496.mvfrm
Library\Bee\artifacts\mvdfrm\UnityEngine.StreamingModule.dll_B5E6A65432AC8CDC.mvfrm
Library\Bee\artifacts\mvdfrm\UnityEngine.SubstanceModule.dll_9291BA9D7DFF8AEA.mvfrm
Library\Bee\artifacts\mvdfrm\UnityEngine.SubsystemsModule.dll_A67EF66E7495FF3E.mvfrm
Library\Bee\artifacts\mvdfrm\UnityEngine.TerrainModule.dll_5424FFE23A7214CF.mvfrm
Library\Bee\artifacts\mvdfrm\UnityEngine.TerrainPhysicsModule.dll_BF5B046BA131BBEC.mvfrm
Library\Bee\artifacts\mvdfrm\UnityEngine.TextCoreFontEngineModule.dll_DEF7999692F539F7.mvfrm
Library\Bee\artifacts\mvdfrm\UnityEngine.TextCoreTextEngineModule.dll_26DFD0082278F315.mvfrm
Library\Bee\artifacts\mvdfrm\UnityEngine.TextRenderingModule.dll_4536D9844E3901D9.mvfrm
Library\Bee\artifacts\mvdfrm\UnityEngine.TilemapModule.dll_F3216763522EF5D8.mvfrm
Library\Bee\artifacts\mvdfrm\UnityEngine.TLSModule.dll_A302C45C820ABC75.mvfrm
Library\Bee\artifacts\mvdfrm\UnityEngine.UIElementsModule.dll_AABD57D677C23B35.mvfrm
Library\Bee\artifacts\mvdfrm\UnityEngine.UIModule.dll_AA81EB31C052CFAE.mvfrm
Library\Bee\artifacts\mvdfrm\UnityEngine.UmbraModule.dll_B6463D3F7CA14A83.mvfrm
Library\Bee\artifacts\mvdfrm\UnityEngine.UnityAnalyticsCommonModule.dll_E80036ACF4FAD4B6.mvfrm
Library\Bee\artifacts\mvdfrm\UnityEngine.UnityAnalyticsModule.dll_DE7FCC623416135B.mvfrm
Library\Bee\artifacts\mvdfrm\UnityEngine.UnityConnectModule.dll_7B133B83AC65C3CF.mvfrm
Library\Bee\artifacts\mvdfrm\UnityEngine.UnityCurlModule.dll_346E5A355338C78B.mvfrm
Library\Bee\artifacts\mvdfrm\UnityEngine.UnityTestProtocolModule.dll_1F27ED3A2E2DA179.mvfrm
Library\Bee\artifacts\mvdfrm\UnityEngine.UnityWebRequestAssetBundleModule.dll_AC5D5B4B9FD4C26C.mvfrm
Library\Bee\artifacts\mvdfrm\UnityEngine.UnityWebRequestAudioModule.dll_C4BDCD47617D00F0.mvfrm
Library\Bee\artifacts\mvdfrm\UnityEngine.UnityWebRequestModule.dll_DEF3A98E14728DAA.mvfrm
Library\Bee\artifacts\mvdfrm\UnityEngine.UnityWebRequestTextureModule.dll_C2893C79D2A214C5.mvfrm
Library\Bee\artifacts\mvdfrm\UnityEngine.UnityWebRequestWWWModule.dll_F1A215641238AF81.mvfrm
Library\Bee\artifacts\mvdfrm\UnityEngine.VehiclesModule.dll_9FEF93DF55B0C491.mvfrm
Library\Bee\artifacts\mvdfrm\UnityEngine.VFXModule.dll_23E15CCB587825E2.mvfrm
Library\Bee\artifacts\mvdfrm\UnityEngine.VideoModule.dll_607B1591B20CBAB5.mvfrm
Library\Bee\artifacts\mvdfrm\UnityEngine.VirtualTexturingModule.dll_9F5645A9D643DDF7.mvfrm
Library\Bee\artifacts\mvdfrm\UnityEngine.VRModule.dll_FD5411B7620D5526.mvfrm
Library\Bee\artifacts\mvdfrm\UnityEngine.WindModule.dll_26794EEAC7644702.mvfrm
Library\Bee\artifacts\mvdfrm\UnityEngine.XRModule.dll_3012D4BBEB47A284.mvfrm
Library\Bee\artifacts\mvdfrm\Unity.Android.Gradle.dll_2310F54CBAC95E56.mvfrm
Library\Bee\artifacts\mvdfrm\Unity.Android.Types.dll_B22D7FDCCF9E5046.mvfrm
Library\Bee\artifacts\mvdfrm\UnityEditor.Android.Extensions.dll_ECFD2F09CE4E5C56.mvfrm
Library\Bee\artifacts\mvdfrm\UnityEditor.WindowsStandalone.Extensions.dll_3B2DF09A80FDE912.mvfrm
Library\Bee\artifacts\mvdfrm\Unity.Plastic.Antlr3.Runtime.dll_DBC5D081C4D6AF26.mvfrm
Library\Bee\artifacts\mvdfrm\Unity.Plastic.Newtonsoft.Json.dll_B06B77423C8110AF.mvfrm
Library\Bee\artifacts\mvdfrm\Unity.Collections.LowLevel.ILSupport.dll_2E40CE80E145E521.mvfrm
Library\Bee\artifacts\mvdfrm\Unity.VisualScripting.IonicZip.dll_3753AE2E22DD17B6.mvfrm
Library\Bee\artifacts\mvdfrm\Unity.VisualScripting.YamlDotNet.dll_B9EB2E0105A28BA6.mvfrm
Library\Bee\artifacts\mvdfrm\Unity.VisualScripting.TextureAssets.dll_51095754C66FE99E.mvfrm
Library\Bee\artifacts\mvdfrm\Unity.VisualScripting.Antlr3.Runtime.dll_6B5854E2366B9BC5.mvfrm