Library\Bee\artifacts\mvdfrm\UnityEngine.UI.ref.dll_AFC2E85BC2EDBC0B.mvfrm
Library\Bee\artifacts\mvdfrm\UnityEngine.AccessibilityModule.dll_9D8ACD445C655AFC.mvfrm
Library\Bee\artifacts\mvdfrm\UnityEngine.AIModule.dll_9CE2B9EF3A9E04BE.mvfrm
Library\Bee\artifacts\mvdfrm\UnityEngine.AndroidJNIModule.dll_A0A722528DF1297C.mvfrm
Library\Bee\artifacts\mvdfrm\UnityEngine.AnimationModule.dll_3D7A1CF2DBF11AA2.mvfrm
Library\Bee\artifacts\mvdfrm\UnityEngine.ARModule.dll_56557EF297BB6387.mvfrm
Library\Bee\artifacts\mvdfrm\UnityEngine.AssetBundleModule.dll_76F0320FE0E5BA10.mvfrm
Library\Bee\artifacts\mvdfrm\UnityEngine.AudioModule.dll_42D70DC8DA380314.mvfrm
Library\Bee\artifacts\mvdfrm\UnityEngine.ClothModule.dll_A9BF6AC3B454E1F8.mvfrm
Library\Bee\artifacts\mvdfrm\UnityEngine.CommandStateObserverModule.dll_D27DD7B1F753AD62.mvfrm
Library\Bee\artifacts\mvdfrm\UnityEngine.ContentLoadModule.dll_10068B50AF6861FD.mvfrm
Library\Bee\artifacts\mvdfrm\UnityEngine.CoreModule.dll_A08E8020EAE0F2D5.mvfrm
Library\Bee\artifacts\mvdfrm\UnityEngine.CrashReportingModule.dll_5BE976E2399B1D8D.mvfrm
Library\Bee\artifacts\mvdfrm\UnityEngine.DirectorModule.dll_69AD06AC443CCE32.mvfrm
Library\Bee\artifacts\mvdfrm\UnityEngine.dll_4E616DE87A4C5EB0.mvfrm
Library\Bee\artifacts\mvdfrm\UnityEngine.DSPGraphModule.dll_6EFE6815B69D9F53.mvfrm
Library\Bee\artifacts\mvdfrm\UnityEngine.GameCenterModule.dll_CAF46C6D54321A6D.mvfrm
Library\Bee\artifacts\mvdfrm\UnityEngine.GIModule.dll_351F02FCD64CECD8.mvfrm
Library\Bee\artifacts\mvdfrm\UnityEngine.GraphToolsFoundationModule.dll_A52CF1612A0D92B6.mvfrm
Library\Bee\artifacts\mvdfrm\UnityEngine.GridModule.dll_7DFF9C0F033588CC.mvfrm
Library\Bee\artifacts\mvdfrm\UnityEngine.HotReloadModule.dll_BEC2DAF8B7243624.mvfrm
Library\Bee\artifacts\mvdfrm\UnityEngine.ImageConversionModule.dll_9D017106617801AF.mvfrm
Library\Bee\artifacts\mvdfrm\UnityEngine.IMGUIModule.dll_7B36AD2FA06996F5.mvfrm
Library\Bee\artifacts\mvdfrm\UnityEngine.InputLegacyModule.dll_08354D2E78D77001.mvfrm
Library\Bee\artifacts\mvdfrm\UnityEngine.InputModule.dll_A94CD579507027B8.mvfrm
Library\Bee\artifacts\mvdfrm\UnityEngine.JSONSerializeModule.dll_FDA256805BA0BB86.mvfrm
Library\Bee\artifacts\mvdfrm\UnityEngine.LocalizationModule.dll_4CE4FDBED54DD11F.mvfrm
Library\Bee\artifacts\mvdfrm\UnityEngine.MarshallingModule.dll_1F58D0A4C50DE762.mvfrm
Library\Bee\artifacts\mvdfrm\UnityEngine.ParticleSystemModule.dll_AEFBC02EA7ACA91B.mvfrm
Library\Bee\artifacts\mvdfrm\UnityEngine.PerformanceReportingModule.dll_F3CA5542C9C69C94.mvfrm
Library\Bee\artifacts\mvdfrm\UnityEngine.Physics2DModule.dll_8A200CE37CEE1237.mvfrm
Library\Bee\artifacts\mvdfrm\UnityEngine.PhysicsModule.dll_B5A3A06265AB9865.mvfrm
Library\Bee\artifacts\mvdfrm\UnityEngine.ProfilerModule.dll_9BF33FE2DD96553F.mvfrm
Library\Bee\artifacts\mvdfrm\UnityEngine.PropertiesModule.dll_F82FABABC71D7EA9.mvfrm
Library\Bee\artifacts\mvdfrm\UnityEngine.RuntimeInitializeOnLoadManagerInitializerModule.dll_F9DD095B0BBE7100.mvfrm
Library\Bee\artifacts\mvdfrm\UnityEngine.ScreenCaptureModule.dll_178A0405700CE7E8.mvfrm
Library\Bee\artifacts\mvdfrm\UnityEngine.SharedInternalsModule.dll_2112AFDBD8A5FCFF.mvfrm
Library\Bee\artifacts\mvdfrm\UnityEngine.SpriteMaskModule.dll_B420DEFD75A1AFE7.mvfrm
Library\Bee\artifacts\mvdfrm\UnityEngine.SpriteShapeModule.dll_90515F6A9687F21A.mvfrm
Library\Bee\artifacts\mvdfrm\UnityEngine.StreamingModule.dll_F20F0A432B78D1E0.mvfrm
Library\Bee\artifacts\mvdfrm\UnityEngine.SubstanceModule.dll_CEBA1E8C76CBCFEE.mvfrm
Library\Bee\artifacts\mvdfrm\UnityEngine.SubsystemsModule.dll_1ECE455F43E997FA.mvfrm
Library\Bee\artifacts\mvdfrm\UnityEngine.TerrainModule.dll_CFEA1BD13B69E153.mvfrm
Library\Bee\artifacts\mvdfrm\UnityEngine.TerrainPhysicsModule.dll_AF766901C0EFA3A8.mvfrm
Library\Bee\artifacts\mvdfrm\UnityEngine.TextCoreFontEngineModule.dll_E80D67DD8DB930B3.mvfrm
Library\Bee\artifacts\mvdfrm\UnityEngine.TextCoreTextEngineModule.dll_2FF59E4F1D3CE9D1.mvfrm
Library\Bee\artifacts\mvdfrm\UnityEngine.TextRenderingModule.dll_40C97610274467DD.mvfrm
Library\Bee\artifacts\mvdfrm\UnityEngine.TilemapModule.dll_6EE683525326C25C.mvfrm
Library\Bee\artifacts\mvdfrm\UnityEngine.TLSModule.dll_5E424C771185C7F9.mvfrm
Library\Bee\artifacts\mvdfrm\UnityEngine.UIElementsModule.dll_230CA6C74715D3F1.mvfrm
Library\Bee\artifacts\mvdfrm\UnityEngine.UIModule.dll_9856581C96E50A6A.mvfrm
Library\Bee\artifacts\mvdfrm\UnityEngine.UmbraModule.dll_BDABB9E1675EAE87.mvfrm
Library\Bee\artifacts\mvdfrm\UnityEngine.UnityAnalyticsCommonModule.dll_8F091286E3AF3AF2.mvfrm
Library\Bee\artifacts\mvdfrm\UnityEngine.UnityAnalyticsModule.dll_CE9B30F853D3FB17.mvfrm
Library\Bee\artifacts\mvdfrm\UnityEngine.UnityConnectModule.dll_7C5B426586D20C0B.mvfrm
Library\Bee\artifacts\mvdfrm\UnityEngine.UnityCurlModule.dll_7096BE244C050C8F.mvfrm
Library\Bee\artifacts\mvdfrm\UnityEngine.UnityTestProtocolModule.dll_39B7085B23B8687D.mvfrm
Library\Bee\artifacts\mvdfrm\UnityEngine.UnityWebRequestAssetBundleModule.dll_592B963B50381728.mvfrm
Library\Bee\artifacts\mvdfrm\UnityEngine.UnityWebRequestAudioModule.dll_6BC6A9215031672C.mvfrm
Library\Bee\artifacts\mvdfrm\UnityEngine.UnityWebRequestModule.dll_AEA078B06C6C9C2E.mvfrm
Library\Bee\artifacts\mvdfrm\UnityEngine.UnityWebRequestTextureModule.dll_62FD6D679BF7DA81.mvfrm
Library\Bee\artifacts\mvdfrm\UnityEngine.UnityWebRequestWWWModule.dll_FAB7E3AB0CFCA63D.mvfrm
Library\Bee\artifacts\mvdfrm\UnityEngine.VehiclesModule.dll_E170002BBE669DCD.mvfrm
Library\Bee\artifacts\mvdfrm\UnityEngine.VFXModule.dll_DF20E4E5E7F33166.mvfrm
Library\Bee\artifacts\mvdfrm\UnityEngine.VideoModule.dll_67E092339CCA1EB9.mvfrm
Library\Bee\artifacts\mvdfrm\UnityEngine.VRModule.dll_EB287EA2389F8FE2.mvfrm
Library\Bee\artifacts\mvdfrm\UnityEngine.WindModule.dll_16DD5B497C17713E.mvfrm
Library\Bee\artifacts\mvdfrm\UnityEngine.XRModule.dll_1DE741A6C1D9DD40.mvfrm
Library\Bee\artifacts\mvdfrm\Unity.Collections.LowLevel.ILSupport.dll_2E40CE80E145E521.mvfrm
Library\Bee\artifacts\mvdfrm\Unity.VisualScripting.Antlr3.Runtime.dll_6B5854E2366B9BC5.mvfrm